"Politeknik Negeri Jember",-8.159653145212413,113.7236239752383
"RSUD Doktor Soebandi",-8.151312496389588,113.71570598290418
"Masjid Jami Al Baitul Amien",-8.168198644590728,113.70046030751837
"al amin",-8.163915076369442,113.7689208984375
soebandi,-8.202315539849826,113.67244720458984
"al mukmin",-7.989877576791056,113.81698608398438
"SD SITI AMINAH",-7.316266592993616,112.705769687891
"MIS AL-HIDAYAH",-7.336758962538751,112.70192474126816
"MIS MIFTAHUL ULUM",-7.2845086118447355,112.59694576263428
"SD HANG TUAH 8",-7.3392702305211985,112.69091963768005
"Masjid Mia Khalifa",-7.305260501068479,113.01223754882812
"Masjid Barokah",-7.328416343459472,112.796630859375
