name,latitude,longitude
DPD PKS Kota Surabaya,-7.303398191,112.7390921
DPW PPP JAwa Timur,-7.325503972,112.7454255
DPW Partai NasDem Provinsi Jawa Timur,-7.278502357,112.7333951
Partai NasDem,-7.268435879,112.7530369
DPD PDI Perjuangan Jawa Timur,-7.329938032,112.7475129
Kantr PDIP DPD Jatim,-7.329666017,112.7475203
DPC PDIP Surabaya,-7.288713608,112.7363033
Partai Demokrat,-7.280916841,112.7791643
Partai Demokrat,-7.277547202,112.7451281
Partai Demokrat,-7.270263746,112.7479702
Kantor Sekretariat DPD Partai Hanura Jawa Timur,-7.259961611,112.7451452
Kantor DPD Partai Hanura,-7.286865197,112.7364009
DPD Partai Gerindra Provinsi Jawa Timur,-7.269228089,112.7373949
DPD Partai Gerindra JaTim,-7.329691955,112.7199418
Partai Gerindra,-7.264329471,112.6708081
FKPPI Golkar,-7.261192851,112.7420945
Kantor DPD Partai Golkar Jawa Timur,-7.341902524,112.7300564
Kantor PAN-Jawa Timur,-7.294492253,112.741545
Kantor DPD Partai PAN Kota Surabaya,-7.279667696,112.7486663
Dewan Pengurus Wilayah PKB,-7.319393183,112.7222767
DPC Kota Surabaya,-7.312483529,112.7165917
